Savanna Torres - Data Analysis Portfolio – R Coding Exercise
…
Observations: You can see a positive correlation between population size and life expectancy. The pattern we see in the data is due to the fact that we have different years for individual countries, and that over time these countries increase in population size and also life expectancy.

More data processing

# Looking for years with missing data for infant mortality
years_missing_infant_mortality <- africadata %>%
  filter(is.na(infant_mortality)) %>%
  group_by(year) %>%
  summarise(missing_count = n())

# Display the years with missing data for infant mortality
print(years_missing_infant_mortality)

# A tibble: 23 × 2
    year missing_count
   <int>         <int>
 1  1960            10
 2  1961            17
 3  1962            16
 4  1963            16
 5  1964            15
 6  1965            14
 7  1966            13
 8  1967            11
 9  1968            11
10  1969             7
# ℹ 13 more rows
…
